%YAML 1.1
%TAG !u! tag:unity3d.com,2011:
--- !u!1001 &7409321670319136815
PrefabInstance:
  m_ObjectHideFlags: 0
  serializedVersion: 2
  m_Modification:
    serializedVersion: 3
    m_TransformParent: {fileID: 0}
    m_Modifications:
    - target: {fileID: -6900486979302239144, guid: ad8214602b4a134458b808b099c58397, type: 3}
      propertyPath: m_Materials.Array.data[0]
      value: 
      objectReference: {fileID: 2100000, guid: 69e29ae6fc28ef643bcc3e0db741dcc0, type: 2}
    - target: {fileID: -4216859302048453862, guid: ad8214602b4a134458b808b099c58397, type: 3}
      propertyPath: m_LocalPosition.x
      value: 0
      objectReference: {fileID: 0}
    - target: {fileID: -4216859302048453862, guid: ad8214602b4a134458b808b099c58397, type: 3}
      propertyPath: m_LocalPosition.y
      value: 0
      objectReference: {fileID: 0}
    - target: {fileID: -4216859302048453862, guid: ad8214602b4a134458b808b099c58397, type: 3}
      propertyPath: m_LocalPosition.z
      value: 0
      objectReference: {fileID: 0}
    - target: {fileID: -4216859302048453862, guid: ad8214602b4a134458b808b099c58397, type: 3}
      propertyPath: m_LocalRotation.w
      value: 1
      objectReference: {fileID: 0}
    - target: {fileID: -4216859302048453862, guid: ad8214602b4a134458b808b099c58397, type: 3}
      propertyPath: m_LocalRotation.x
      value: 0
      objectReference: {fileID: 0}
    - target: {fileID: -4216859302048453862, guid: ad8214602b4a134458b808b099c58397, type: 3}
      propertyPath: m_LocalRotation.y
      value: 0
      objectReference: {fileID: 0}
    - target: {fileID: -4216859302048453862, guid: ad8214602b4a134458b808b099c58397, type: 3}
      propertyPath: m_LocalRotation.z
      value: 0
      objectReference: {fileID: 0}
    - target: {fileID: -4216859302048453862, guid: ad8214602b4a134458b808b099c58397, type: 3}
      propertyPath: m_LocalEulerAnglesHint.x
      value: 0
      objectReference: {fileID: 0}
    - target: {fileID: -4216859302048453862, guid: ad8214602b4a134458b808b099c58397, type: 3}
      propertyPath: m_LocalEulerAnglesHint.y
      value: 0
      objectReference: {fileID: 0}
    - target: {fileID: -4216859302048453862, guid: ad8214602b4a134458b808b099c58397, type: 3}
      propertyPath: m_LocalEulerAnglesHint.z
      value: 0
      objectReference: {fileID: 0}
    - target: {fileID: -927199367670048503, guid: ad8214602b4a134458b808b099c58397, type: 3}
      propertyPath: m_Name
      value: Male_brille
      objectReference: {fileID: 0}
    - target: {fileID: -927199367670048503, guid: ad8214602b4a134458b808b099c58397, type: 3}
      propertyPath: m_IsActive
      value: 1
      objectReference: {fileID: 0}
    m_RemovedComponents: []
    m_RemovedGameObjects: []
    m_AddedGameObjects: []
    m_AddedComponents:
    - targetCorrespondingSourceObject: {fileID: -927199367670048503, guid: ad8214602b4a134458b808b099c58397, type: 3}
      insertIndex: -1
      addedObject: {fileID: 4442312327874442193}
  m_SourcePrefab: {fileID: 100100000, guid: ad8214602b4a134458b808b099c58397, type: 3}
--- !u!1 &1581572554743003430 stripped
GameObject:
  m_CorrespondingSourceObject: {fileID: -927199367670048503, guid: ad8214602b4a134458b808b099c58397, type: 3}
  m_PrefabInstance: {fileID: 7409321670319136815}
  m_PrefabAsset: {fileID: 0}
--- !u!114 &4442312327874442193
MonoBehaviour:
  m_ObjectHideFlags: 0
  m_CorrespondingSourceObject: {fileID: 0}
  m_PrefabInstance: {fileID: 0}
  m_PrefabAsset: {fileID: 0}
  m_GameObject: {fileID: 1581572554743003430}
  m_Enabled: 1
  m_EditorHideFlags: 0
  m_Script: {fileID: 11500000, guid: 22d982831108893488918b6160614fbf, type: 3}
  m_Name: 
  m_EditorClassIdentifier: 
  rend: {fileID: 5111507969632285815}
  meshTransform: {fileID: 6241826807947615243}
  noColoring: 1
  overrideIndexes: 
--- !u!23 &5111507969632285815 stripped
MeshRenderer:
  m_CorrespondingSourceObject: {fileID: -6900486979302239144, guid: ad8214602b4a134458b808b099c58397, type: 3}
  m_PrefabInstance: {fileID: 7409321670319136815}
  m_PrefabAsset: {fileID: 0}
--- !u!4 &6241826807947615243 stripped
Transform:
  m_CorrespondingSourceObject: {fileID: 3480260673953578020, guid: ad8214602b4a134458b808b099c58397, type: 3}
  m_PrefabInstance: {fileID: 7409321670319136815}
  m_PrefabAsset: {fileID: 0}
