%YAML 1.1
%TAG !u! tag:unity3d.com,2011:
--- !u!1001 &6121938312051834857
PrefabInstance:
  m_ObjectHideFlags: 0
  serializedVersion: 2
  m_Modification:
    serializedVersion: 3
    m_TransformParent: {fileID: 0}
    m_Modifications:
    - target: {fileID: -4216859302048453862, guid: 444c7955f05a4814a81e9f1ca22748db, type: 3}
      propertyPath: m_LocalPosition.x
      value: 0
      objectReference: {fileID: 0}
    - target: {fileID: -4216859302048453862, guid: 444c7955f05a4814a81e9f1ca22748db, type: 3}
      propertyPath: m_LocalPosition.y
      value: 0
      objectReference: {fileID: 0}
    - target: {fileID: -4216859302048453862, guid: 444c7955f05a4814a81e9f1ca22748db, type: 3}
      propertyPath: m_LocalPosition.z
      value: 0
      objectReference: {fileID: 0}
    - target: {fileID: -4216859302048453862, guid: 444c7955f05a4814a81e9f1ca22748db, type: 3}
      propertyPath: m_LocalRotation.w
      value: 1
      objectReference: {fileID: 0}
    - target: {fileID: -4216859302048453862, guid: 444c7955f05a4814a81e9f1ca22748db, type: 3}
      propertyPath: m_LocalRotation.x
      value: 0
      objectReference: {fileID: 0}
    - target: {fileID: -4216859302048453862, guid: 444c7955f05a4814a81e9f1ca22748db, type: 3}
      propertyPath: m_LocalRotation.y
      value: 0
      objectReference: {fileID: 0}
    - target: {fileID: -4216859302048453862, guid: 444c7955f05a4814a81e9f1ca22748db, type: 3}
      propertyPath: m_LocalRotation.z
      value: 0
      objectReference: {fileID: 0}
    - target: {fileID: -4216859302048453862, guid: 444c7955f05a4814a81e9f1ca22748db, type: 3}
      propertyPath: m_LocalEulerAnglesHint.x
      value: 0
      objectReference: {fileID: 0}
    - target: {fileID: -4216859302048453862, guid: 444c7955f05a4814a81e9f1ca22748db, type: 3}
      propertyPath: m_LocalEulerAnglesHint.y
      value: 0
      objectReference: {fileID: 0}
    - target: {fileID: -4216859302048453862, guid: 444c7955f05a4814a81e9f1ca22748db, type: 3}
      propertyPath: m_LocalEulerAnglesHint.z
      value: 0
      objectReference: {fileID: 0}
    - target: {fileID: -927199367670048503, guid: 444c7955f05a4814a81e9f1ca22748db, type: 3}
      propertyPath: m_Name
      value: male_hat
      objectReference: {fileID: 0}
    m_RemovedComponents: []
    m_RemovedGameObjects: []
    m_AddedGameObjects: []
    m_AddedComponents:
    - targetCorrespondingSourceObject: {fileID: -927199367670048503, guid: 444c7955f05a4814a81e9f1ca22748db, type: 3}
      insertIndex: -1
      addedObject: {fileID: 7096654293061686459}
  m_SourcePrefab: {fileID: 100100000, guid: 444c7955f05a4814a81e9f1ca22748db, type: 3}
--- !u!23 &2354966918762082319 stripped
MeshRenderer:
  m_CorrespondingSourceObject: {fileID: 8384571773884567526, guid: 444c7955f05a4814a81e9f1ca22748db, type: 3}
  m_PrefabInstance: {fileID: 6121938312051834857}
  m_PrefabAsset: {fileID: 0}
--- !u!1 &2870080920058816224 stripped
GameObject:
  m_CorrespondingSourceObject: {fileID: -927199367670048503, guid: 444c7955f05a4814a81e9f1ca22748db, type: 3}
  m_PrefabInstance: {fileID: 6121938312051834857}
  m_PrefabAsset: {fileID: 0}
--- !u!114 &7096654293061686459
MonoBehaviour:
  m_ObjectHideFlags: 0
  m_CorrespondingSourceObject: {fileID: 0}
  m_PrefabInstance: {fileID: 0}
  m_PrefabAsset: {fileID: 0}
  m_GameObject: {fileID: 2870080920058816224}
  m_Enabled: 1
  m_EditorHideFlags: 0
  m_Script: {fileID: 11500000, guid: 22d982831108893488918b6160614fbf, type: 3}
  m_Name: 
  m_EditorClassIdentifier: 
  rend: {fileID: 2354966918762082319}
  meshTransform: {fileID: 6954228490142977380}
--- !u!4 &6954228490142977380 stripped
Transform:
  m_CorrespondingSourceObject: {fileID: 3780525059222516365, guid: 444c7955f05a4814a81e9f1ca22748db, type: 3}
  m_PrefabInstance: {fileID: 6121938312051834857}
  m_PrefabAsset: {fileID: 0}
