%YAML 1.1
%TAG !u! tag:unity3d.com,2011:
--- !u!1001 &1355109913310607604
PrefabInstance:
  m_ObjectHideFlags: 0
  serializedVersion: 2
  m_Modification:
    serializedVersion: 3
    m_TransformParent: {fileID: 0}
    m_Modifications:
    - target: {fileID: -4216859302048453862, guid: fa83603be44bf5143be337b87f8a8411, type: 3}
      propertyPath: m_LocalPosition.x
      value: 0
      objectReference: {fileID: 0}
    - target: {fileID: -4216859302048453862, guid: fa83603be44bf5143be337b87f8a8411, type: 3}
      propertyPath: m_LocalPosition.y
      value: 0
      objectReference: {fileID: 0}
    - target: {fileID: -4216859302048453862, guid: fa83603be44bf5143be337b87f8a8411, type: 3}
      propertyPath: m_LocalPosition.z
      value: 0
      objectReference: {fileID: 0}
    - target: {fileID: -4216859302048453862, guid: fa83603be44bf5143be337b87f8a8411, type: 3}
      propertyPath: m_LocalRotation.w
      value: 1
      objectReference: {fileID: 0}
    - target: {fileID: -4216859302048453862, guid: fa83603be44bf5143be337b87f8a8411, type: 3}
      propertyPath: m_LocalRotation.x
      value: 0
      objectReference: {fileID: 0}
    - target: {fileID: -4216859302048453862, guid: fa83603be44bf5143be337b87f8a8411, type: 3}
      propertyPath: m_LocalRotation.y
      value: 0
      objectReference: {fileID: 0}
    - target: {fileID: -4216859302048453862, guid: fa83603be44bf5143be337b87f8a8411, type: 3}
      propertyPath: m_LocalRotation.z
      value: 0
      objectReference: {fileID: 0}
    - target: {fileID: -4216859302048453862, guid: fa83603be44bf5143be337b87f8a8411, type: 3}
      propertyPath: m_LocalEulerAnglesHint.x
      value: 0
      objectReference: {fileID: 0}
    - target: {fileID: -4216859302048453862, guid: fa83603be44bf5143be337b87f8a8411, type: 3}
      propertyPath: m_LocalEulerAnglesHint.y
      value: 0
      objectReference: {fileID: 0}
    - target: {fileID: -4216859302048453862, guid: fa83603be44bf5143be337b87f8a8411, type: 3}
      propertyPath: m_LocalEulerAnglesHint.z
      value: 0
      objectReference: {fileID: 0}
    - target: {fileID: -927199367670048503, guid: fa83603be44bf5143be337b87f8a8411, type: 3}
      propertyPath: m_Name
      value: male_hair
      objectReference: {fileID: 0}
    m_RemovedComponents: []
    m_RemovedGameObjects: []
    m_AddedGameObjects: []
    m_AddedComponents:
    - targetCorrespondingSourceObject: {fileID: -927199367670048503, guid: fa83603be44bf5143be337b87f8a8411, type: 3}
      insertIndex: -1
      addedObject: {fileID: 9203331907100630904}
  m_SourcePrefab: {fileID: 100100000, guid: fa83603be44bf5143be337b87f8a8411, type: 3}
--- !u!23 &4717517411322276307 stripped
MeshRenderer:
  m_CorrespondingSourceObject: {fileID: -3190329341189254873, guid: fa83603be44bf5143be337b87f8a8411, type: 3}
  m_PrefabInstance: {fileID: 1355109913310607604}
  m_PrefabAsset: {fileID: 0}
--- !u!1 &7057066258267791869 stripped
GameObject:
  m_CorrespondingSourceObject: {fileID: -927199367670048503, guid: fa83603be44bf5143be337b87f8a8411, type: 3}
  m_PrefabInstance: {fileID: 1355109913310607604}
  m_PrefabAsset: {fileID: 0}
--- !u!114 &9203331907100630904
MonoBehaviour:
  m_ObjectHideFlags: 0
  m_CorrespondingSourceObject: {fileID: 0}
  m_PrefabInstance: {fileID: 0}
  m_PrefabAsset: {fileID: 0}
  m_GameObject: {fileID: 7057066258267791869}
  m_Enabled: 1
  m_EditorHideFlags: 0
  m_Script: {fileID: 11500000, guid: 22d982831108893488918b6160614fbf, type: 3}
  m_Name: 
  m_EditorClassIdentifier: 
  rend: {fileID: 4717517411322276307}
  meshTransform: {fileID: 7836723191614732254}
--- !u!4 &7836723191614732254 stripped
Transform:
  m_CorrespondingSourceObject: {fileID: 9083746642254876458, guid: fa83603be44bf5143be337b87f8a8411, type: 3}
  m_PrefabInstance: {fileID: 1355109913310607604}
  m_PrefabAsset: {fileID: 0}
