%YAML 1.1
%TAG !u! tag:unity3d.com,2011:
--- !u!1001 &2884559254609227689
PrefabInstance:
  m_ObjectHideFlags: 0
  serializedVersion: 2
  m_Modification:
    serializedVersion: 3
    m_TransformParent: {fileID: 0}
    m_Modifications:
    - target: {fileID: -4216859302048453862, guid: 5c289859566aa6f43adcbc07d45f3de3, type: 3}
      propertyPath: m_LocalPosition.x
      value: 0
      objectReference: {fileID: 0}
    - target: {fileID: -4216859302048453862, guid: 5c289859566aa6f43adcbc07d45f3de3, type: 3}
      propertyPath: m_LocalPosition.y
      value: 0
      objectReference: {fileID: 0}
    - target: {fileID: -4216859302048453862, guid: 5c289859566aa6f43adcbc07d45f3de3, type: 3}
      propertyPath: m_LocalPosition.z
      value: 0
      objectReference: {fileID: 0}
    - target: {fileID: -4216859302048453862, guid: 5c289859566aa6f43adcbc07d45f3de3, type: 3}
      propertyPath: m_LocalRotation.w
      value: 1
      objectReference: {fileID: 0}
    - target: {fileID: -4216859302048453862, guid: 5c289859566aa6f43adcbc07d45f3de3, type: 3}
      propertyPath: m_LocalRotation.x
      value: 0
      objectReference: {fileID: 0}
    - target: {fileID: -4216859302048453862, guid: 5c289859566aa6f43adcbc07d45f3de3, type: 3}
      propertyPath: m_LocalRotation.y
      value: 0
      objectReference: {fileID: 0}
    - target: {fileID: -4216859302048453862, guid: 5c289859566aa6f43adcbc07d45f3de3, type: 3}
      propertyPath: m_LocalRotation.z
      value: 0
      objectReference: {fileID: 0}
    - target: {fileID: -4216859302048453862, guid: 5c289859566aa6f43adcbc07d45f3de3, type: 3}
      propertyPath: m_LocalEulerAnglesHint.x
      value: 0
      objectReference: {fileID: 0}
    - target: {fileID: -4216859302048453862, guid: 5c289859566aa6f43adcbc07d45f3de3, type: 3}
      propertyPath: m_LocalEulerAnglesHint.y
      value: 0
      objectReference: {fileID: 0}
    - target: {fileID: -4216859302048453862, guid: 5c289859566aa6f43adcbc07d45f3de3, type: 3}
      propertyPath: m_LocalEulerAnglesHint.z
      value: 0
      objectReference: {fileID: 0}
    - target: {fileID: -927199367670048503, guid: 5c289859566aa6f43adcbc07d45f3de3, type: 3}
      propertyPath: m_Name
      value: male_schnurbart
      objectReference: {fileID: 0}
    m_RemovedComponents: []
    m_RemovedGameObjects: []
    m_AddedGameObjects: []
    m_AddedComponents:
    - targetCorrespondingSourceObject: {fileID: -927199367670048503, guid: 5c289859566aa6f43adcbc07d45f3de3, type: 3}
      insertIndex: -1
      addedObject: {fileID: 2416821658626645738}
  m_SourcePrefab: {fileID: 100100000, guid: 5c289859566aa6f43adcbc07d45f3de3, type: 3}
--- !u!23 &727779872414778402 stripped
MeshRenderer:
  m_CorrespondingSourceObject: {fileID: 2454906737434176395, guid: 5c289859566aa6f43adcbc07d45f3de3, type: 3}
  m_PrefabInstance: {fileID: 2884559254609227689}
  m_PrefabAsset: {fileID: 0}
--- !u!1 &6569043548233217696 stripped
GameObject:
  m_CorrespondingSourceObject: {fileID: -927199367670048503, guid: 5c289859566aa6f43adcbc07d45f3de3, type: 3}
  m_PrefabInstance: {fileID: 2884559254609227689}
  m_PrefabAsset: {fileID: 0}
--- !u!114 &2416821658626645738
MonoBehaviour:
  m_ObjectHideFlags: 0
  m_CorrespondingSourceObject: {fileID: 0}
  m_PrefabInstance: {fileID: 0}
  m_PrefabAsset: {fileID: 0}
  m_GameObject: {fileID: 6569043548233217696}
  m_Enabled: 1
  m_EditorHideFlags: 0
  m_Script: {fileID: 11500000, guid: 22d982831108893488918b6160614fbf, type: 3}
  m_Name: 
  m_EditorClassIdentifier: 
  rend: {fileID: 727779872414778402}
  meshTransform: {fileID: 6766923277068476797}
--- !u!4 &6766923277068476797 stripped
Transform:
  m_CorrespondingSourceObject: {fileID: -729315383597510956, guid: 5c289859566aa6f43adcbc07d45f3de3, type: 3}
  m_PrefabInstance: {fileID: 2884559254609227689}
  m_PrefabAsset: {fileID: 0}
