%YAML 1.1
%TAG !u! tag:unity3d.com,2011:
--- !u!1001 &4667835475361867069
PrefabInstance:
  m_ObjectHideFlags: 0
  serializedVersion: 2
  m_Modification:
    serializedVersion: 3
    m_TransformParent: {fileID: 0}
    m_Modifications:
    - target: {fileID: -4216859302048453862, guid: eb43f8120dbe89f409d9265b73224353, type: 3}
      propertyPath: m_LocalPosition.x
      value: 0
      objectReference: {fileID: 0}
    - target: {fileID: -4216859302048453862, guid: eb43f8120dbe89f409d9265b73224353, type: 3}
      propertyPath: m_LocalPosition.y
      value: 0
      objectReference: {fileID: 0}
    - target: {fileID: -4216859302048453862, guid: eb43f8120dbe89f409d9265b73224353, type: 3}
      propertyPath: m_LocalPosition.z
      value: 0
      objectReference: {fileID: 0}
    - target: {fileID: -4216859302048453862, guid: eb43f8120dbe89f409d9265b73224353, type: 3}
      propertyPath: m_LocalRotation.w
      value: 1
      objectReference: {fileID: 0}
    - target: {fileID: -4216859302048453862, guid: eb43f8120dbe89f409d9265b73224353, type: 3}
      propertyPath: m_LocalRotation.x
      value: 0
      objectReference: {fileID: 0}
    - target: {fileID: -4216859302048453862, guid: eb43f8120dbe89f409d9265b73224353, type: 3}
      propertyPath: m_LocalRotation.y
      value: 0
      objectReference: {fileID: 0}
    - target: {fileID: -4216859302048453862, guid: eb43f8120dbe89f409d9265b73224353, type: 3}
      propertyPath: m_LocalRotation.z
      value: 0
      objectReference: {fileID: 0}
    - target: {fileID: -4216859302048453862, guid: eb43f8120dbe89f409d9265b73224353, type: 3}
      propertyPath: m_LocalEulerAnglesHint.x
      value: 0
      objectReference: {fileID: 0}
    - target: {fileID: -4216859302048453862, guid: eb43f8120dbe89f409d9265b73224353, type: 3}
      propertyPath: m_LocalEulerAnglesHint.y
      value: 0
      objectReference: {fileID: 0}
    - target: {fileID: -4216859302048453862, guid: eb43f8120dbe89f409d9265b73224353, type: 3}
      propertyPath: m_LocalEulerAnglesHint.z
      value: 0
      objectReference: {fileID: 0}
    - target: {fileID: -927199367670048503, guid: eb43f8120dbe89f409d9265b73224353, type: 3}
      propertyPath: m_Name
      value: male_schnauzbart
      objectReference: {fileID: 0}
    m_RemovedComponents: []
    m_RemovedGameObjects: []
    m_AddedGameObjects: []
    m_AddedComponents:
    - targetCorrespondingSourceObject: {fileID: -927199367670048503, guid: eb43f8120dbe89f409d9265b73224353, type: 3}
      insertIndex: -1
      addedObject: {fileID: 2281007606597104926}
  m_SourcePrefab: {fileID: 100100000, guid: eb43f8120dbe89f409d9265b73224353, type: 3}
--- !u!23 &790678141368041747 stripped
MeshRenderer:
  m_CorrespondingSourceObject: {fileID: -3873528652490496978, guid: eb43f8120dbe89f409d9265b73224353, type: 3}
  m_PrefabInstance: {fileID: 4667835475361867069}
  m_PrefabAsset: {fileID: 0}
--- !u!1 &3739842241974664244 stripped
GameObject:
  m_CorrespondingSourceObject: {fileID: -927199367670048503, guid: eb43f8120dbe89f409d9265b73224353, type: 3}
  m_PrefabInstance: {fileID: 4667835475361867069}
  m_PrefabAsset: {fileID: 0}
--- !u!114 &2281007606597104926
MonoBehaviour:
  m_ObjectHideFlags: 0
  m_CorrespondingSourceObject: {fileID: 0}
  m_PrefabInstance: {fileID: 0}
  m_PrefabAsset: {fileID: 0}
  m_GameObject: {fileID: 3739842241974664244}
  m_Enabled: 1
  m_EditorHideFlags: 0
  m_Script: {fileID: 11500000, guid: 22d982831108893488918b6160614fbf, type: 3}
  m_Name: 
  m_EditorClassIdentifier: 
  rend: {fileID: 790678141368041747}
  meshTransform: {fileID: 3835603670436574143}
--- !u!4 &3835603670436574143 stripped
Transform:
  m_CorrespondingSourceObject: {fileID: 8502152423977473666, guid: eb43f8120dbe89f409d9265b73224353, type: 3}
  m_PrefabInstance: {fileID: 4667835475361867069}
  m_PrefabAsset: {fileID: 0}
