%YAML 1.1
%TAG !u! tag:unity3d.com,2011:
--- !u!114 &11400000
MonoBehaviour:
  m_ObjectHideFlags: 0
  m_CorrespondingSourceObject: {fileID: 0}
  m_PrefabInstance: {fileID: 0}
  m_PrefabAsset: {fileID: 0}
  m_GameObject: {fileID: 0}
  m_Enabled: 1
  m_EditorHideFlags: 0
  m_Script: {fileID: 11500000, guid: f75a0695a844a084f8e4a8844337b1b1, type: 3}
  m_Name: Obstacles
  m_EditorClassIdentifier: 
  sequences:
  - name: simpleObstacleSmall
    weight: 15
    normalizedWeight: 0
    elements:
    - wayChunkType: 1
      flipped: 0
    - wayChunkType: 1
      flipped: 0
    - wayChunkType: 1
      flipped: 0
    - wayChunkType: 1
      flipped: 0
    - wayChunkType: 1
      flipped: 0
    - wayChunkType: 4
      flipped: 0
    - wayChunkType: 1
      flipped: 0
    - wayChunkType: 1
      flipped: 0
    - wayChunkType: 1
      flipped: 0
    - wayChunkType: 1
      flipped: 0
    - wayChunkType: 1
      flipped: 0
    length: 10
    debugColor: {r: 1, g: 0.050882287, b: 0, a: 1}
    difficulty: 1
  - name: simpleObstacleSmallPair
    weight: 15
    normalizedWeight: 0
    elements:
    - wayChunkType: 1
      flipped: 0
    - wayChunkType: 1
      flipped: 0
    - wayChunkType: 1
      flipped: 0
    - wayChunkType: 1
      flipped: 0
    - wayChunkType: 1
      flipped: 0
    - wayChunkType: 4
      flipped: 0
    - wayChunkType: 1
      flipped: 0
    - wayChunkType: 1
      flipped: 0
    - wayChunkType: 1
      flipped: 0
    - wayChunkType: 1
      flipped: 0
    - wayChunkType: 1
      flipped: 0
    - wayChunkType: 4
      flipped: 1
    - wayChunkType: 1
      flipped: 0
    - wayChunkType: 1
      flipped: 0
    - wayChunkType: 1
      flipped: 0
    - wayChunkType: 1
      flipped: 0
    - wayChunkType: 1
      flipped: 0
    length: 20
    debugColor: {r: 1, g: 0.5180758, b: 0, a: 1}
    difficulty: 1
  - name: simpleObstacleSmall3
    weight: 15
    normalizedWeight: 0
    elements:
    - wayChunkType: 1
      flipped: 0
    - wayChunkType: 1
      flipped: 0
    - wayChunkType: 1
      flipped: 0
    - wayChunkType: 1
      flipped: 0
    - wayChunkType: 1
      flipped: 0
    - wayChunkType: 4
      flipped: 0
    - wayChunkType: 1
      flipped: 0
    - wayChunkType: 1
      flipped: 0
    - wayChunkType: 1
      flipped: 0
    - wayChunkType: 1
      flipped: 0
    - wayChunkType: 1
      flipped: 0
    - wayChunkType: 4
      flipped: 1
    - wayChunkType: 1
      flipped: 0
    - wayChunkType: 1
      flipped: 0
    - wayChunkType: 1
      flipped: 0
    - wayChunkType: 1
      flipped: 0
    - wayChunkType: 1
      flipped: 0
    - wayChunkType: 4
      flipped: 0
    - wayChunkType: 1
      flipped: 0
    - wayChunkType: 1
      flipped: 0
    - wayChunkType: 1
      flipped: 0
    - wayChunkType: 1
      flipped: 0
    - wayChunkType: 1
      flipped: 0
    length: 20
    debugColor: {r: 1, g: 0.8467263, b: 0, a: 1}
    difficulty: 1
  - name: longOne
    weight: 12
    normalizedWeight: 0
    elements:
    - wayChunkType: 1
      flipped: 0
    - wayChunkType: 1
      flipped: 0
    - wayChunkType: 1
      flipped: 0
    - wayChunkType: 1
      flipped: 0
    - wayChunkType: 5
      flipped: 0
    - wayChunkType: 1
      flipped: 0
    - wayChunkType: 1
      flipped: 0
    - wayChunkType: 1
      flipped: 0
    - wayChunkType: 1
      flipped: 0
    length: 20
    debugColor: {r: 0.84874165, g: 1, b: 0, a: 1}
    difficulty: 0
  - name: longTwo
    weight: 12
    normalizedWeight: 0
    elements:
    - wayChunkType: 1
      flipped: 0
    - wayChunkType: 1
      flipped: 0
    - wayChunkType: 1
      flipped: 0
    - wayChunkType: 1
      flipped: 0
    - wayChunkType: 5
      flipped: 0
    - wayChunkType: 1
      flipped: 0
    - wayChunkType: 1
      flipped: 0
    - wayChunkType: 1
      flipped: 0
    - wayChunkType: 1
      flipped: 0
    - wayChunkType: 5
      flipped: 1
    - wayChunkType: 1
      flipped: 0
    - wayChunkType: 1
      flipped: 0
    - wayChunkType: 1
      flipped: 0
    length: 20
    debugColor: {r: 0, g: 1, b: 0.76030993, a: 1}
    difficulty: 0
  - name: longTwoTwin
    weight: 10
    normalizedWeight: 0
    elements:
    - wayChunkType: 1
      flipped: 0
    - wayChunkType: 1
      flipped: 0
    - wayChunkType: 1
      flipped: 0
    - wayChunkType: 1
      flipped: 0
    - wayChunkType: 5
      flipped: 0
    - wayChunkType: 1
      flipped: 0
    - wayChunkType: 1
      flipped: 0
    - wayChunkType: 1
      flipped: 0
    - wayChunkType: 1
      flipped: 0
    - wayChunkType: 5
      flipped: 1
    - wayChunkType: 5
      flipped: 1
    - wayChunkType: 1
      flipped: 0
    - wayChunkType: 1
      flipped: 0
    - wayChunkType: 1
      flipped: 0
    length: 30
    debugColor: {r: 0, g: 0.9278722, b: 1, a: 1}
    difficulty: 0
  - name: longTwoSide
    weight: 10
    normalizedWeight: 0
    elements:
    - wayChunkType: 1
      flipped: 0
    - wayChunkType: 1
      flipped: 0
    - wayChunkType: 1
      flipped: 0
    - wayChunkType: 1
      flipped: 0
    - wayChunkType: 5
      flipped: 0
    - wayChunkType: 1
      flipped: 0
    - wayChunkType: 1
      flipped: 0
    - wayChunkType: 1
      flipped: 0
    - wayChunkType: 1
      flipped: 0
    - wayChunkType: 5
      flipped: 0
    - wayChunkType: 1
      flipped: 0
    - wayChunkType: 1
      flipped: 0
    - wayChunkType: 1
      flipped: 0
    - wayChunkType: 1
      flipped: 0
    length: 30
    debugColor: {r: 0, g: 0.40710688, b: 1, a: 1}
    difficulty: 0
  - name: longDifficult
    weight: 8
    normalizedWeight: 0
    elements:
    - wayChunkType: 1
      flipped: 0
    - wayChunkType: 1
      flipped: 0
    - wayChunkType: 1
      flipped: 0
    - wayChunkType: 1
      flipped: 0
    - wayChunkType: 1
      flipped: 0
    - wayChunkType: 4
      flipped: 0
    - wayChunkType: 5
      flipped: 0
    - wayChunkType: 1
      flipped: 0
    - wayChunkType: 1
      flipped: 0
    - wayChunkType: 1
      flipped: 0
    - wayChunkType: 1
      flipped: 0
    - wayChunkType: 1
      flipped: 0
    length: 30
    debugColor: {r: 0.07006645, g: 0, b: 1, a: 1}
    difficulty: 1
  - name: longTwoSideDifficult
    weight: 8
    normalizedWeight: 0
    elements:
    - wayChunkType: 1
      flipped: 0
    - wayChunkType: 1
      flipped: 0
    - wayChunkType: 1
      flipped: 0
    - wayChunkType: 1
      flipped: 0
    - wayChunkType: 5
      flipped: 0
    - wayChunkType: 1
      flipped: 0
    - wayChunkType: 1
      flipped: 0
    - wayChunkType: 1
      flipped: 0
    - wayChunkType: 1
      flipped: 0
    - wayChunkType: 4
      flipped: 0
    - wayChunkType: 5
      flipped: 0
    - wayChunkType: 1
      flipped: 0
    - wayChunkType: 1
      flipped: 0
    length: 30
    debugColor: {r: 0.42258215, g: 0, b: 1, a: 1}
    difficulty: 2
  - name: veryDifficult
    weight: 6
    normalizedWeight: 0
    elements:
    - wayChunkType: 1
      flipped: 0
    - wayChunkType: 1
      flipped: 0
    - wayChunkType: 1
      flipped: 0
    - wayChunkType: 4
      flipped: 0
    - wayChunkType: 1
      flipped: 0
    - wayChunkType: 1
      flipped: 0
    - wayChunkType: 1
      flipped: 0
    - wayChunkType: 4
      flipped: 1
    - wayChunkType: 1
      flipped: 0
    - wayChunkType: 1
      flipped: 0
    - wayChunkType: 1
      flipped: 0
    - wayChunkType: 5
      flipped: 0
    - wayChunkType: 1
      flipped: 0
    - wayChunkType: 1
      flipped: 0
    - wayChunkType: 1
      flipped: 0
    - wayChunkType: 4
      flipped: 0
    - wayChunkType: 5
      flipped: 0
    - wayChunkType: 1
      flipped: 0
    - wayChunkType: 1
      flipped: 0
    - wayChunkType: 1
      flipped: 0
    length: 30
    debugColor: {r: 1, g: 0, b: 0.9935298, a: 1}
    difficulty: 2
  - name: veryDifficult2
    weight: 6
    normalizedWeight: 0
    elements:
    - wayChunkType: 1
      flipped: 0
    - wayChunkType: 1
      flipped: 0
    - wayChunkType: 1
      flipped: 0
    - wayChunkType: 4
      flipped: 0
    - wayChunkType: 5
      flipped: 0
    - wayChunkType: 4
      flipped: 0
    - wayChunkType: 1
      flipped: 0
    - wayChunkType: 1
      flipped: 0
    - wayChunkType: 1
      flipped: 0
    - wayChunkType: 4
      flipped: 1
    - wayChunkType: 4
      flipped: 1
    - wayChunkType: 1
      flipped: 0
    - wayChunkType: 1
      flipped: 0
    - wayChunkType: 1
      flipped: 0
    - wayChunkType: 5
      flipped: 1
    - wayChunkType: 1
      flipped: 0
    - wayChunkType: 1
      flipped: 0
    - wayChunkType: 1
      flipped: 0
    - wayChunkType: 4
      flipped: 0
    - wayChunkType: 5
      flipped: 0
    - wayChunkType: 4
      flipped: 0
    - wayChunkType: 1
      flipped: 0
    - wayChunkType: 1
      flipped: 0
    - wayChunkType: 1
      flipped: 0
    length: 30
    debugColor: {r: 1, g: 0, b: 0.42762136, a: 1}
    difficulty: 2
