%YAML 1.1
%TAG !u! tag:unity3d.com,2011:
--- !u!114 &11400000
MonoBehaviour:
  m_ObjectHideFlags: 0
  m_CorrespondingSourceObject: {fileID: 0}
  m_PrefabInstance: {fileID: 0}
  m_PrefabAsset: {fileID: 0}
  m_GameObject: {fileID: 0}
  m_Enabled: 1
  m_EditorHideFlags: 0
  m_Script: {fileID: 11500000, guid: 1301849c70d74684ca997bd462bd8136, type: 3}
  m_Name: EditorSettings
  m_EditorClassIdentifier: 
  convertToComa: 1
  downloadPath: csv
  tsv: 1
  fileId: 1o5vuyo9__U52qTXXAJRaQGAl4ta2cFjCjcLdN8YuQ08
  sheets:
  - sheetName: translation
    gid: 2107199019
  - sheetName: towns
    gid: 1784753252
  - sheetName: resources
    gid: 1243478410
  - sheetName: locomotives
    gid: 1963071897
  - sheetName: coaches
    gid: 1901116694
  - sheetName: townBuildings
    gid: 537776448
  - sheetName: capibaras
    gid: 61603250
