%YAML 1.1
%TAG !u! tag:unity3d.com,2011:
--- !u!114 &11400000
MonoBehaviour:
  m_ObjectHideFlags: 0
  m_CorrespondingSourceObject: {fileID: 0}
  m_PrefabInstance: {fileID: 0}
  m_PrefabAsset: {fileID: 0}
  m_GameObject: {fileID: 0}
  m_Enabled: 1
  m_EditorHideFlags: 0
  m_Script: {fileID: 11500000, guid: b72ff025dbb44c249adb51d81984ecae, type: 3}
  m_Name: DebugCollection
  m_EditorClassIdentifier: 
  arrow: {fileID: 5478509347658292169, guid: 419a5b374e9968044b7744c53c4c12d0, type: 3}
  axis: {fileID: 127893727216691423, guid: f751cb08728c1c44f9ef5d465cf9347a, type: 3}
  octagon: {fileID: -8444147260737309604, guid: 376893756994c9040936429275ee176d, type: 3}
  drop: {fileID: -7761224883891234671, guid: d8efaf4e1ed0bb04f97150f847d05f60, type: 3}
  cube: {fileID: 10202, guid: 0000000000000000e000000000000000, type: 0}
  debugUnlit: {fileID: 2100000, guid: b3739ff4276b778449ad8661e56aaffd, type: 2}
  debugUnlitTransparent: {fileID: 2100000, guid: eeef8752b96c8ff4db631a00bb374bb0, type: 2}
