%YAML 1.1
%TAG !u! tag:unity3d.com,2011:
--- !u!1 &6816990038103460270
GameObject:
  m_ObjectHideFlags: 0
  m_CorrespondingSourceObject: {fileID: 0}
  m_PrefabInstance: {fileID: 0}
  m_PrefabAsset: {fileID: 0}
  serializedVersion: 6
  m_Component:
  - component: {fileID: 4212876101485489194}
  - component: {fileID: 5172818818260017175}
  m_Layer: 0
  m_Name: SoundsTrain
  m_TagString: Untagged
  m_Icon: {fileID: 0}
  m_NavMeshLayer: 0
  m_StaticEditorFlags: 0
  m_IsActive: 1
--- !u!4 &4212876101485489194
Transform:
  m_ObjectHideFlags: 0
  m_CorrespondingSourceObject: {fileID: 0}
  m_PrefabInstance: {fileID: 0}
  m_PrefabAsset: {fileID: 0}
  m_GameObject: {fileID: 6816990038103460270}
  serializedVersion: 2
  m_LocalRotation: {x: 0, y: 0, z: 0, w: 1}
  m_LocalPosition: {x: 0, y: 0, z: 0}
  m_LocalScale: {x: 1, y: 1, z: 1}
  m_ConstrainProportionsScale: 0
  m_Children: []
  m_Father: {fileID: 0}
  m_LocalEulerAnglesHint: {x: 0, y: 0, z: 0}
--- !u!114 &5172818818260017175
MonoBehaviour:
  m_ObjectHideFlags: 0
  m_CorrespondingSourceObject: {fileID: 0}
  m_PrefabInstance: {fileID: 0}
  m_PrefabAsset: {fileID: 0}
  m_GameObject: {fileID: 6816990038103460270}
  m_Enabled: 1
  m_EditorHideFlags: 0
  m_Script: {fileID: 11500000, guid: 870d1418f081b604f99a75952a8b17ab, type: 3}
  m_Name: 
  m_EditorClassIdentifier: 
  mtAudioSources:
  - name: Enum:Copper
    clip: {fileID: 8300000, guid: 8ef169730f09fe74c8ac8ab481e0bab1, type: 3}
    count: 6
    soundType: 0
    enumName: 0
  - name: Enum:Silver
    clip: {fileID: 8300000, guid: cb59027e05dac4949b3145591a02f062, type: 3}
    count: 1
    soundType: 0
    enumName: 1
  - name: Enum:Gold
    clip: {fileID: 8300000, guid: 4d1a94cb3a27ed24f95f74e7aa9dfe29, type: 3}
    count: 1
    soundType: 0
    enumName: 2
  - name: Enum:Gear Repair
    clip: {fileID: 8300000, guid: 00797a11c6d52b34abd448a4f2a0fd05, type: 3}
    count: 1
    soundType: 0
    enumName: 3
  - name: Enum:Ticket
    clip: {fileID: 8300000, guid: f29ce872812083b4e99b2408e74440b8, type: 3}
    count: 1
    soundType: 0
    enumName: 4
  - name: Enum:Green Light
    clip: {fileID: 8300000, guid: 25086cf8e99d4554081aa166771fec89, type: 3}
    count: 1
    soundType: 0
    enumName: 5
  - name: Enum:Red Light
    clip: {fileID: 8300000, guid: de0d1d107ea303a4dadfc71199cd9542, type: 3}
    count: 1
    soundType: 0
    enumName: 6
  - name: Enum:Skip Platform
    clip: {fileID: 8300000, guid: 86bb4caa903c1f24699ae4bc789c0be3, type: 3}
    count: 1
    soundType: 0
    enumName: 7
  - name: Enum:Hit
    clip: {fileID: 8300000, guid: fd2b15ad7fc22c0488e4b1c6a5683678, type: 3}
    count: 1
    soundType: 0
    enumName: 8
  - name: Enum:Hit No Point
    clip: {fileID: 8300000, guid: 3d6e9f4540e9167428b0445ed8823f44, type: 3}
    count: 1
    soundType: 0
    enumName: 9
  - name: Enum:Horn Hit
    clip: {fileID: 8300000, guid: 90afb8141e56bbe4187ad27825116bcd, type: 3}
    count: 1
    soundType: 0
    enumName: 10
  - name: Enum:Death
    clip: {fileID: 8300000, guid: ecb47e1624c2e524fa63eca4eccd4a4d, type: 3}
    count: 1
    soundType: 0
    enumName: 11
  - name: Enum:Flip
    clip: {fileID: 8300000, guid: 5ecabf0ba8a3719408477a791125674f, type: 3}
    count: 1
    soundType: 0
    enumName: 12
  - name: Enum:Ty Dyh
    clip: {fileID: 8300000, guid: 728e954980cf7344f90edade7bcf798b, type: 3}
    count: 1
    soundType: 3
    enumName: 13
  - name: Enum:Ty Dyh 2
    clip: {fileID: 8300000, guid: f36c7f6f1bd03724b948ba73ad693311, type: 3}
    count: 1
    soundType: 3
    enumName: 14
  - name: Enum:Break Press
    clip: {fileID: 8300000, guid: 0db3335e09f1a2f4a8d36a6ba940e202, type: 3}
    count: 1
    soundType: 2
    enumName: 15
  - name: Enum:Break Release
    clip: {fileID: 8300000, guid: 064e5ae21c1ce2e4988f044e01e79bb1, type: 3}
    count: 1
    soundType: 2
    enumName: 16
  p1: 3
  p2: 13
  tyDyhPitch:
    min: 0.8
    max: 1.5
  tyDyhVolume:
    min: 0.6
    max: 0.05
  tyDyhAbsSpeed:
    min: 0
    max: 40
