%YAML 1.1
%TAG !u! tag:unity3d.com,2011:
--- !u!1 &5205945636403826785
GameObject:
  m_ObjectHideFlags: 0
  m_CorrespondingSourceObject: {fileID: 0}
  m_PrefabInstance: {fileID: 0}
  m_PrefabAsset: {fileID: 0}
  serializedVersion: 6
  m_Component:
  - component: {fileID: 2747540689626791143}
  - component: {fileID: 753201238106176254}
  m_Layer: 0
  m_Name: SoundsShared
  m_TagString: Untagged
  m_Icon: {fileID: 0}
  m_NavMeshLayer: 0
  m_StaticEditorFlags: 0
  m_IsActive: 1
--- !u!4 &2747540689626791143
Transform:
  m_ObjectHideFlags: 0
  m_CorrespondingSourceObject: {fileID: 0}
  m_PrefabInstance: {fileID: 0}
  m_PrefabAsset: {fileID: 0}
  m_GameObject: {fileID: 5205945636403826785}
  serializedVersion: 2
  m_LocalRotation: {x: 0, y: 0, z: 0, w: 1}
  m_LocalPosition: {x: 0, y: 0, z: 0}
  m_LocalScale: {x: 1, y: 1, z: 1}
  m_ConstrainProportionsScale: 0
  m_Children: []
  m_Father: {fileID: 0}
  m_LocalEulerAnglesHint: {x: 0, y: 0, z: 0}
--- !u!114 &753201238106176254
MonoBehaviour:
  m_ObjectHideFlags: 0
  m_CorrespondingSourceObject: {fileID: 0}
  m_PrefabInstance: {fileID: 0}
  m_PrefabAsset: {fileID: 0}
  m_GameObject: {fileID: 5205945636403826785}
  m_Enabled: 1
  m_EditorHideFlags: 0
  m_Script: {fileID: 11500000, guid: b8a58a111ff0e7a45b56c559aaf3347a, type: 3}
  m_Name: 
  m_EditorClassIdentifier: 
  mtAudioSources:
  - name: Enum:Coin
    clip: {fileID: 8300000, guid: 0f6b128f16b348e4d9d767896cc0a523, type: 3}
    count: 6
    soundType: 0
    enumName: 0
  - name: Enum:Pop Jar
    clip: {fileID: 8300000, guid: b44c219a1730a42488ecc14a9e03ba41, type: 3}
    count: 6
    soundType: 0
    enumName: 1
  - name: Enum:Maintenance Open
    clip: {fileID: 8300000, guid: db1dc476820f97b4c91088e4ef2fa799, type: 3}
    count: 1
    soundType: 0
    enumName: 4
  - name: Enum:Maintenance Close
    clip: {fileID: 8300000, guid: 62ee0303d25ad9a48aa2c6b272ebc781, type: 3}
    count: 1
    soundType: 0
    enumName: 5
  - name: Enum:Button
    clip: {fileID: 8300000, guid: 6801d08db9083f144a34f35f76969658, type: 3}
    count: 2
    soundType: 0
    enumName: 2
  - name: Enum:Button Soft
    clip: {fileID: 8300000, guid: 90112cbbcbfd49542adbea7f4d2eadf3, type: 3}
    count: 2
    soundType: 0
    enumName: 3
  - name: Enum:Big Cog
    clip: {fileID: 8300000, guid: 82a1b02cb89d6d44cbc26b039322dd7c, type: 3}
    count: 6
    soundType: 0
    enumName: 6
  - name: Enum:Cargo Whoosh
    clip: {fileID: 8300000, guid: 0cb8b42a18238a6488b4f79b80c4f337, type: 3}
    count: 8
    soundType: 0
    enumName: 7
  - name: Enum:Cargo Whoosh 2
    clip: {fileID: 8300000, guid: 45b622751b3efa545807a371e23ac4c1, type: 3}
    count: 8
    soundType: 0
    enumName: 8
  - name: Enum:Magic
    clip: {fileID: 8300000, guid: c840f70bea8e54441a413befd0ba404a, type: 3}
    count: 1
    soundType: 0
    enumName: 10
  - name: Enum:Wipe IN
    clip: {fileID: 8300000, guid: 6add7923b6024a84ebf04db2ba70c949, type: 3}
    count: 1
    soundType: 0
    enumName: 9
