%YAML 1.1
%TAG !u! tag:unity3d.com,2011:
--- !u!1 &8685485822238968655
GameObject:
  m_ObjectHideFlags: 0
  m_CorrespondingSourceObject: {fileID: 0}
  m_PrefabInstance: {fileID: 0}
  m_PrefabAsset: {fileID: 0}
  serializedVersion: 6
  m_Component:
  - component: {fileID: 4495195820313272905}
  - component: {fileID: 5605127587045235054}
  m_Layer: 0
  m_Name: MainAnimCollection
  m_TagString: Untagged
  m_Icon: {fileID: 0}
  m_NavMeshLayer: 0
  m_StaticEditorFlags: 0
  m_IsActive: 1
--- !u!4 &4495195820313272905
Transform:
  m_ObjectHideFlags: 0
  m_CorrespondingSourceObject: {fileID: 0}
  m_PrefabInstance: {fileID: 0}
  m_PrefabAsset: {fileID: 0}
  m_GameObject: {fileID: 8685485822238968655}
  serializedVersion: 2
  m_LocalRotation: {x: 0, y: 0, z: 0, w: 1}
  m_LocalPosition: {x: 0, y: 0, z: 0}
  m_LocalScale: {x: 1, y: 1, z: 1}
  m_ConstrainProportionsScale: 0
  m_Children: []
  m_Father: {fileID: 0}
  m_LocalEulerAnglesHint: {x: 0, y: 0, z: 0}
--- !u!114 &5605127587045235054
MonoBehaviour:
  m_ObjectHideFlags: 0
  m_CorrespondingSourceObject: {fileID: 0}
  m_PrefabInstance: {fileID: 0}
  m_PrefabAsset: {fileID: 0}
  m_GameObject: {fileID: 8685485822238968655}
  m_Enabled: 1
  m_EditorHideFlags: 0
  m_Script: {fileID: 11500000, guid: 789cf2cb901f43446b4977cbc139d336, type: 3}
  m_Name: 
  m_EditorClassIdentifier: 
  lists:
  - name: Idle
    animations:
    - name: 
      weight: 6
      normalizedWeight: 0
      anim: {fileID: 3309659311377923603, guid: 06cd47dadc4b3874bae5ebb24fc2f56c, type: 3}
    - name: 
      weight: 5
      normalizedWeight: 0
      anim: {fileID: 3309659311377923603, guid: be30bdf930694db499d083c0f213ea27, type: 3}
    - name: 
      weight: 5
      normalizedWeight: 0
      anim: {fileID: 3309659311377923603, guid: e7464d2fc8581b94ab97b1f90c704713, type: 3}
    - name: 
      weight: 4
      normalizedWeight: 0
      anim: {fileID: 3309659311377923603, guid: 1bd9b1ab33694ce4aafe97fe03d2c0c2, type: 3}
    - name: 
      weight: 4
      normalizedWeight: 0
      anim: {fileID: 3309659311377923603, guid: 72c8cd4540f29c649943f4d554810a61, type: 3}
    - name: 
      weight: 7
      normalizedWeight: 0
      anim: {fileID: 3309659311377923603, guid: 5354626c1042ce64299fb9024f93553e, type: 3}
    - name: 
      weight: 7
      normalizedWeight: 0
      anim: {fileID: 3309659311377923603, guid: c7447a46c61078e44bbca2da76c4c333, type: 3}
  - name: Talk
    animations:
    - name: 
      weight: 10
      normalizedWeight: 0
      anim: {fileID: 3309659311377923603, guid: c5b0807d4b0139a459c959fd31c4bb86, type: 3}
    - name: 
      weight: 10
      normalizedWeight: 0
      anim: {fileID: 3309659311377923603, guid: 9ec817edfa48a364cb7e4cfbac359f94, type: 3}
    - name: 
      weight: 8
      normalizedWeight: 0
      anim: {fileID: 3309659311377923603, guid: 9fbb074ee3da468408778fefadc9f435, type: 3}
    - name: 
      weight: 8
      normalizedWeight: 0
      anim: {fileID: 3309659311377923603, guid: 63218d6dbc673034ebbd367153f6b08a, type: 3}
    - name: 
      weight: 2
      normalizedWeight: 0
      anim: {fileID: 3309659311377923603, guid: ab8aedada15ad0b489d1dccfdf7c847c, type: 3}
    - name: 
      weight: 2
      normalizedWeight: 0
      anim: {fileID: 3309659311377923603, guid: 0e1bdcb32f81cd849b56a9feefb1a488, type: 3}
    - name: 
      weight: 2
      normalizedWeight: 0
      anim: {fileID: 3309659311377923603, guid: 1dd7289e0f8ffd04ab74b36ef053aa20, type: 3}
    - name: 
      weight: 2
      normalizedWeight: 0
      anim: {fileID: 3309659311377923603, guid: 5979389c0dabd1843a68aa23c2c0bd2d, type: 3}
    - name: 
      weight: 3
      normalizedWeight: 0
      anim: {fileID: 3309659311377923603, guid: 50690963d985e7d43b217a7e984f7ebf, type: 3}
    - name: 
      weight: 3
      normalizedWeight: 0
      anim: {fileID: 3309659311377923603, guid: d120a2616e9565c44888986a4fe12a76, type: 3}
  - name: Lauschen
    animations:
    - name: 
      weight: 10
      normalizedWeight: 0
      anim: {fileID: 3309659311377923603, guid: 06cd47dadc4b3874bae5ebb24fc2f56c, type: 3}
    - name: 
      weight: 4
      normalizedWeight: 0
      anim: {fileID: 3309659311377923603, guid: 9fbb074ee3da468408778fefadc9f435, type: 3}
    - name: 
      weight: 4
      normalizedWeight: 0
      anim: {fileID: 3309659311377923603, guid: 63218d6dbc673034ebbd367153f6b08a, type: 3}
    - name: 
      weight: 4
      normalizedWeight: 0
      anim: {fileID: 3309659311377923603, guid: c5b0807d4b0139a459c959fd31c4bb86, type: 3}
    - name: 
      weight: 4
      normalizedWeight: 0
      anim: {fileID: 3309659311377923603, guid: 9ec817edfa48a364cb7e4cfbac359f94, type: 3}
    - name: 
      weight: 1
      normalizedWeight: 0
      anim: {fileID: 3309659311377923603, guid: 1dd7289e0f8ffd04ab74b36ef053aa20, type: 3}
    - name: 
      weight: 1
      normalizedWeight: 0
      anim: {fileID: 3309659311377923603, guid: 5979389c0dabd1843a68aa23c2c0bd2d, type: 3}
  - name: Customer
    animations:
    - name: 
      weight: 10
      normalizedWeight: 0
      anim: {fileID: 3309659311377923603, guid: c5b0807d4b0139a459c959fd31c4bb86, type: 3}
    - name: 
      weight: 10
      normalizedWeight: 0
      anim: {fileID: 3309659311377923603, guid: 9ec817edfa48a364cb7e4cfbac359f94, type: 3}
    - name: 
      weight: 2
      normalizedWeight: 0
      anim: {fileID: 3309659311377923603, guid: 9fbb074ee3da468408778fefadc9f435, type: 3}
    - name: 
      weight: 2
      normalizedWeight: 0
      anim: {fileID: 3309659311377923603, guid: 63218d6dbc673034ebbd367153f6b08a, type: 3}
    - name: 
      weight: 1
      normalizedWeight: 0
      anim: {fileID: 3309659311377923603, guid: be30bdf930694db499d083c0f213ea27, type: 3}
    - name: 
      weight: 3
      normalizedWeight: 0
      anim: {fileID: 3309659311377923603, guid: 50690963d985e7d43b217a7e984f7ebf, type: 3}
    - name: 
      weight: 3
      normalizedWeight: 0
      anim: {fileID: 3309659311377923603, guid: d120a2616e9565c44888986a4fe12a76, type: 3}
  - name: Seller
    animations:
    - name: 
      weight: 12
      normalizedWeight: 0
      anim: {fileID: 3309659311377923603, guid: c5b0807d4b0139a459c959fd31c4bb86, type: 3}
    - name: 
      weight: 12
      normalizedWeight: 0
      anim: {fileID: 3309659311377923603, guid: 9ec817edfa48a364cb7e4cfbac359f94, type: 3}
    - name: 
      weight: 2
      normalizedWeight: 0
      anim: {fileID: 3309659311377923603, guid: be30bdf930694db499d083c0f213ea27, type: 3}
    - name: 
      weight: 3
      normalizedWeight: 0
      anim: {fileID: 3309659311377923603, guid: 9fbb074ee3da468408778fefadc9f435, type: 3}
    - name: 
      weight: 1
      normalizedWeight: 0
      anim: {fileID: 3309659311377923603, guid: ab8aedada15ad0b489d1dccfdf7c847c, type: 3}
    - name: 
      weight: 1
      normalizedWeight: 0
      anim: {fileID: 3309659311377923603, guid: 06cd47dadc4b3874bae5ebb24fc2f56c, type: 3}
    - name: 
      weight: 3
      normalizedWeight: 0
      anim: {fileID: 3309659311377923603, guid: 50690963d985e7d43b217a7e984f7ebf, type: 3}
    - name: 
      weight: 3
      normalizedWeight: 0
      anim: {fileID: 3309659311377923603, guid: d120a2616e9565c44888986a4fe12a76, type: 3}
  - name: ImpatientPassenger
    animations:
    - name: 
      weight: 10
      normalizedWeight: 0
      anim: {fileID: 3309659311377923603, guid: 1bd9b1ab33694ce4aafe97fe03d2c0c2, type: 3}
    - name: 
      weight: 10
      normalizedWeight: 0
      anim: {fileID: 3309659311377923603, guid: 72c8cd4540f29c649943f4d554810a61, type: 3}
    - name: 
      weight: 2
      normalizedWeight: 0
      anim: {fileID: 3309659311377923603, guid: be30bdf930694db499d083c0f213ea27, type: 3}
    - name: 
      weight: 2
      normalizedWeight: 0
      anim: {fileID: 3309659311377923603, guid: e7464d2fc8581b94ab97b1f90c704713, type: 3}
    - name: 
      weight: 2
      normalizedWeight: 0
      anim: {fileID: 3309659311377923603, guid: 5354626c1042ce64299fb9024f93553e, type: 3}
    - name: 
      weight: 2
      normalizedWeight: 0
      anim: {fileID: 3309659311377923603, guid: c7447a46c61078e44bbca2da76c4c333, type: 3}
    - name: 
      weight: 5
      normalizedWeight: 0
      anim: {fileID: 3309659311377923603, guid: 5979389c0dabd1843a68aa23c2c0bd2d, type: 3}
    - name: 
      weight: 5
      normalizedWeight: 0
      anim: {fileID: 3309659311377923603, guid: 5979389c0dabd1843a68aa23c2c0bd2d, type: 3}
    - name: 
      weight: 10
      normalizedWeight: 0
      anim: {fileID: 3309659311377923603, guid: 50690963d985e7d43b217a7e984f7ebf, type: 3}
    - name: 
      weight: 10
      normalizedWeight: 0
      anim: {fileID: 3309659311377923603, guid: d120a2616e9565c44888986a4fe12a76, type: 3}
  - name: Policeman
    animations:
    - name: 
      weight: 10
      normalizedWeight: 0
      anim: {fileID: 3309659311377923603, guid: c5b0807d4b0139a459c959fd31c4bb86, type: 3}
    - name: 
      weight: 10
      normalizedWeight: 0
      anim: {fileID: 3309659311377923603, guid: 9ec817edfa48a364cb7e4cfbac359f94, type: 3}
    - name: 
      weight: 5
      normalizedWeight: 0
      anim: {fileID: 3309659311377923603, guid: 9fbb074ee3da468408778fefadc9f435, type: 3}
    - name: 
      weight: 5
      normalizedWeight: 0
      anim: {fileID: 3309659311377923603, guid: 63218d6dbc673034ebbd367153f6b08a, type: 3}
    - name: 
      weight: 2
      normalizedWeight: 0
      anim: {fileID: 3309659311377923603, guid: be30bdf930694db499d083c0f213ea27, type: 3}
    - name: 
      weight: 2
      normalizedWeight: 0
      anim: {fileID: 3309659311377923603, guid: e7464d2fc8581b94ab97b1f90c704713, type: 3}
    - name: 
      weight: 5
      normalizedWeight: 0
      anim: {fileID: 3309659311377923603, guid: 50690963d985e7d43b217a7e984f7ebf, type: 3}
    - name: 
      weight: 5
      normalizedWeight: 0
      anim: {fileID: 3309659311377923603, guid: d120a2616e9565c44888986a4fe12a76, type: 3}
    - name: 
      weight: 1
      normalizedWeight: 0
      anim: {fileID: 3309659311377923603, guid: 1bd9b1ab33694ce4aafe97fe03d2c0c2, type: 3}
    - name: 
      weight: 1
      normalizedWeight: 0
      anim: {fileID: 3309659311377923603, guid: 72c8cd4540f29c649943f4d554810a61, type: 3}
    - name: 
      weight: 3
      normalizedWeight: 0
      anim: {fileID: 3309659311377923603, guid: 1dd7289e0f8ffd04ab74b36ef053aa20, type: 3}
    - name: 
      weight: 3
      normalizedWeight: 0
      anim: {fileID: 3309659311377923603, guid: 5979389c0dabd1843a68aa23c2c0bd2d, type: 3}
  - name: IdlePatient
    animations:
    - name: 
      weight: 15
      normalizedWeight: 0
      anim: {fileID: 3309659311377923603, guid: 06cd47dadc4b3874bae5ebb24fc2f56c, type: 3}
    - name: 
      weight: 3
      normalizedWeight: 0
      anim: {fileID: 3309659311377923603, guid: be30bdf930694db499d083c0f213ea27, type: 3}
    - name: 
      weight: 3
      normalizedWeight: 0
      anim: {fileID: 3309659311377923603, guid: e7464d2fc8581b94ab97b1f90c704713, type: 3}
    - name: 
      weight: 2
      normalizedWeight: 0
      anim: {fileID: 3309659311377923603, guid: 5354626c1042ce64299fb9024f93553e, type: 3}
    - name: 
      weight: 2
      normalizedWeight: 0
      anim: {fileID: 3309659311377923603, guid: c7447a46c61078e44bbca2da76c4c333, type: 3}
