%YAML 1.1
%TAG !u! tag:unity3d.com,2011:
--- !u!114 &11400000
MonoBehaviour:
  m_ObjectHideFlags: 0
  m_CorrespondingSourceObject: {fileID: 0}
  m_PrefabInstance: {fileID: 0}
  m_PrefabAsset: {fileID: 0}
  m_GameObject: {fileID: 0}
  m_Enabled: 1
  m_EditorHideFlags: 0
  m_Script: {fileID: 11500000, guid: 6fa2002f884c2764390933ef39736d60, type: 3}
  m_Name: IconIDHolder
  m_EditorClassIdentifier: 
  icons:
  - _id: -1
    _sprite: {fileID: 21300000, guid: ed6cebac765deb14f90ab1956fda673a, type: 3}
    _duplicateID: 0
    _duplicateSprite: 0
  - _id: 0
    _sprite: {fileID: 21300000, guid: 9988e4dfff573524ca3230f4fbcb182e, type: 3}
    _duplicateID: 0
    _duplicateSprite: 0
  - _id: 1
    _sprite: {fileID: 21300000, guid: 6e43dd34884a34c4eb7e5bb2ffb5e1a4, type: 3}
    _duplicateID: 0
    _duplicateSprite: 0
  - _id: 2
    _sprite: {fileID: 21300000, guid: 27ac5093d9c8a2547bb8499101b3c49f, type: 3}
    _duplicateID: 0
    _duplicateSprite: 0
  - _id: 3
    _sprite: {fileID: 21300000, guid: b6ec21856b0e8ab478c0eb17dd132091, type: 3}
    _duplicateID: 0
    _duplicateSprite: 0
  - _id: 4
    _sprite: {fileID: 21300000, guid: 848ea4e6d94a6cb4b8a4202f8b728045, type: 3}
    _duplicateID: 0
    _duplicateSprite: 0
  - _id: 5
    _sprite: {fileID: 21300000, guid: a4fa8713afb6af9449d25947feedf09e, type: 3}
    _duplicateID: 0
    _duplicateSprite: 0
  - _id: 6
    _sprite: {fileID: 21300000, guid: 9ed62b3e92bea3c48bfdc502b04f36b4, type: 3}
    _duplicateID: 0
    _duplicateSprite: 0
  - _id: 7
    _sprite: {fileID: 21300000, guid: d2cdc505670662f4ab1c19566d126286, type: 3}
    _duplicateID: 0
    _duplicateSprite: 0
  - _id: 8
    _sprite: {fileID: 21300000, guid: 0319e7e0d85146342a1122874aaa10b1, type: 3}
    _duplicateID: 0
    _duplicateSprite: 0
  - _id: 9
    _sprite: {fileID: 21300000, guid: 917f3ffe03d0c3b47af6884718edc446, type: 3}
    _duplicateID: 0
    _duplicateSprite: 0
