%YAML 1.1
%TAG !u! tag:unity3d.com,2011:
--- !u!1001 &2601177380910967267
PrefabInstance:
  m_ObjectHideFlags: 0
  serializedVersion: 2
  m_Modification:
    serializedVersion: 3
    m_TransformParent: {fileID: 0}
    m_Modifications:
    - target: {fileID: -4216859302048453862, guid: e8681b31ebdff3a43b0206fdc9140ee4, type: 3}
      propertyPath: m_LocalPosition.x
      value: 0
      objectReference: {fileID: 0}
    - target: {fileID: -4216859302048453862, guid: e8681b31ebdff3a43b0206fdc9140ee4, type: 3}
      propertyPath: m_LocalPosition.y
      value: 0
      objectReference: {fileID: 0}
    - target: {fileID: -4216859302048453862, guid: e8681b31ebdff3a43b0206fdc9140ee4, type: 3}
      propertyPath: m_LocalPosition.z
      value: 0
      objectReference: {fileID: 0}
    - target: {fileID: -4216859302048453862, guid: e8681b31ebdff3a43b0206fdc9140ee4, type: 3}
      propertyPath: m_LocalRotation.w
      value: 1
      objectReference: {fileID: 0}
    - target: {fileID: -4216859302048453862, guid: e8681b31ebdff3a43b0206fdc9140ee4, type: 3}
      propertyPath: m_LocalRotation.x
      value: 0
      objectReference: {fileID: 0}
    - target: {fileID: -4216859302048453862, guid: e8681b31ebdff3a43b0206fdc9140ee4, type: 3}
      propertyPath: m_LocalRotation.y
      value: 0
      objectReference: {fileID: 0}
    - target: {fileID: -4216859302048453862, guid: e8681b31ebdff3a43b0206fdc9140ee4, type: 3}
      propertyPath: m_LocalRotation.z
      value: 0
      objectReference: {fileID: 0}
    - target: {fileID: -4216859302048453862, guid: e8681b31ebdff3a43b0206fdc9140ee4, type: 3}
      propertyPath: m_LocalEulerAnglesHint.x
      value: 0
      objectReference: {fileID: 0}
    - target: {fileID: -4216859302048453862, guid: e8681b31ebdff3a43b0206fdc9140ee4, type: 3}
      propertyPath: m_LocalEulerAnglesHint.y
      value: 0
      objectReference: {fileID: 0}
    - target: {fileID: -4216859302048453862, guid: e8681b31ebdff3a43b0206fdc9140ee4, type: 3}
      propertyPath: m_LocalEulerAnglesHint.z
      value: 0
      objectReference: {fileID: 0}
    - target: {fileID: -927199367670048503, guid: e8681b31ebdff3a43b0206fdc9140ee4, type: 3}
      propertyPath: m_Name
      value: pipe
      objectReference: {fileID: 0}
    m_RemovedComponents: []
    m_RemovedGameObjects: []
    m_AddedGameObjects: []
    m_AddedComponents:
    - targetCorrespondingSourceObject: {fileID: -927199367670048503, guid: e8681b31ebdff3a43b0206fdc9140ee4, type: 3}
      insertIndex: -1
      addedObject: {fileID: 2461895676050382024}
  m_SourcePrefab: {fileID: 100100000, guid: e8681b31ebdff3a43b0206fdc9140ee4, type: 3}
--- !u!4 &1275669926505917803 stripped
Transform:
  m_CorrespondingSourceObject: {fileID: -5355578194618350456, guid: e8681b31ebdff3a43b0206fdc9140ee4, type: 3}
  m_PrefabInstance: {fileID: 2601177380910967267}
  m_PrefabAsset: {fileID: 0}
--- !u!1 &6285002106004173034 stripped
GameObject:
  m_CorrespondingSourceObject: {fileID: -927199367670048503, guid: e8681b31ebdff3a43b0206fdc9140ee4, type: 3}
  m_PrefabInstance: {fileID: 2601177380910967267}
  m_PrefabAsset: {fileID: 0}
--- !u!114 &2461895676050382024
MonoBehaviour:
  m_ObjectHideFlags: 0
  m_CorrespondingSourceObject: {fileID: 0}
  m_PrefabInstance: {fileID: 0}
  m_PrefabAsset: {fileID: 0}
  m_GameObject: {fileID: 6285002106004173034}
  m_Enabled: 1
  m_EditorHideFlags: 0
  m_Script: {fileID: 11500000, guid: 22d982831108893488918b6160614fbf, type: 3}
  m_Name: 
  m_EditorClassIdentifier: 
  rend: {fileID: 6862820474825348638}
  meshTransform: {fileID: 1275669926505917803}
--- !u!23 &6862820474825348638 stripped
MeshRenderer:
  m_CorrespondingSourceObject: {fileID: -349979122211700739, guid: e8681b31ebdff3a43b0206fdc9140ee4, type: 3}
  m_PrefabInstance: {fileID: 2601177380910967267}
  m_PrefabAsset: {fileID: 0}
