%YAML 1.1
%TAG !u! tag:unity3d.com,2011:
--- !u!1001 &9157510210283070619
PrefabInstance:
  m_ObjectHideFlags: 0
  serializedVersion: 2
  m_Modification:
    serializedVersion: 3
    m_TransformParent: {fileID: 0}
    m_Modifications:
    - target: {fileID: -4216859302048453862, guid: 91921eaa1f27ef946bfbadcd735c4992, type: 3}
      propertyPath: m_LocalPosition.x
      value: 0
      objectReference: {fileID: 0}
    - target: {fileID: -4216859302048453862, guid: 91921eaa1f27ef946bfbadcd735c4992, type: 3}
      propertyPath: m_LocalPosition.y
      value: 0
      objectReference: {fileID: 0}
    - target: {fileID: -4216859302048453862, guid: 91921eaa1f27ef946bfbadcd735c4992, type: 3}
      propertyPath: m_LocalPosition.z
      value: 0
      objectReference: {fileID: 0}
    - target: {fileID: -4216859302048453862, guid: 91921eaa1f27ef946bfbadcd735c4992, type: 3}
      propertyPath: m_LocalRotation.w
      value: 1
      objectReference: {fileID: 0}
    - target: {fileID: -4216859302048453862, guid: 91921eaa1f27ef946bfbadcd735c4992, type: 3}
      propertyPath: m_LocalRotation.x
      value: 0
      objectReference: {fileID: 0}
    - target: {fileID: -4216859302048453862, guid: 91921eaa1f27ef946bfbadcd735c4992, type: 3}
      propertyPath: m_LocalRotation.y
      value: -0
      objectReference: {fileID: 0}
    - target: {fileID: -4216859302048453862, guid: 91921eaa1f27ef946bfbadcd735c4992, type: 3}
      propertyPath: m_LocalRotation.z
      value: -0
      objectReference: {fileID: 0}
    - target: {fileID: -4216859302048453862, guid: 91921eaa1f27ef946bfbadcd735c4992, type: 3}
      propertyPath: m_LocalEulerAnglesHint.x
      value: 0
      objectReference: {fileID: 0}
    - target: {fileID: -4216859302048453862, guid: 91921eaa1f27ef946bfbadcd735c4992, type: 3}
      propertyPath: m_LocalEulerAnglesHint.y
      value: 0
      objectReference: {fileID: 0}
    - target: {fileID: -4216859302048453862, guid: 91921eaa1f27ef946bfbadcd735c4992, type: 3}
      propertyPath: m_LocalEulerAnglesHint.z
      value: 0
      objectReference: {fileID: 0}
    - target: {fileID: -1504981713932161579, guid: 91921eaa1f27ef946bfbadcd735c4992, type: 3}
      propertyPath: m_Materials.Array.data[0]
      value: 
      objectReference: {fileID: 2100000, guid: 01369b6a52b899a4ab747a74f20c9536, type: 2}
    - target: {fileID: -927199367670048503, guid: 91921eaa1f27ef946bfbadcd735c4992, type: 3}
      propertyPath: m_Name
      value: woodLog_01
      objectReference: {fileID: 0}
    m_RemovedComponents: []
    m_RemovedGameObjects: []
    m_AddedGameObjects: []
    m_AddedComponents:
    - targetCorrespondingSourceObject: {fileID: -927199367670048503, guid: 91921eaa1f27ef946bfbadcd735c4992, type: 3}
      insertIndex: -1
      addedObject: {fileID: 934402345804784702}
  m_SourcePrefab: {fileID: 100100000, guid: 91921eaa1f27ef946bfbadcd735c4992, type: 3}
--- !u!1 &880434017158053266 stripped
GameObject:
  m_CorrespondingSourceObject: {fileID: -927199367670048503, guid: 91921eaa1f27ef946bfbadcd735c4992, type: 3}
  m_PrefabInstance: {fileID: 9157510210283070619}
  m_PrefabAsset: {fileID: 0}
--- !u!114 &934402345804784702
MonoBehaviour:
  m_ObjectHideFlags: 0
  m_CorrespondingSourceObject: {fileID: 0}
  m_PrefabInstance: {fileID: 0}
  m_PrefabAsset: {fileID: 0}
  m_GameObject: {fileID: 880434017158053266}
  m_Enabled: 1
  m_EditorHideFlags: 0
  m_Script: {fileID: 11500000, guid: 4728829c758770447bb4d2cad94d38b9, type: 3}
  m_Name: 
  m_EditorClassIdentifier: 
  renderers: []
  baseTransform: {fileID: 0}
