%YAML 1.1
%TAG !u! tag:unity3d.com,2011:
--- !u!181963792 &2655988077585873504
Preset:
  m_ObjectHideFlags: 0
  m_CorrespondingSourceObject: {fileID: 0}
  m_PrefabInstance: {fileID: 0}
  m_PrefabAsset: {fileID: 0}
  m_Name: Rigidbody_rrCollision
  m_TargetType:
    m_NativeTypeID: 54
    m_ManagedTypePPtr: {fileID: 0}
    m_ManagedTypeFallback: 
  m_Properties:
  - target: {fileID: 0}
    propertyPath: m_Mass
    value: 1
    objectReference: {fileID: 0}
  - target: {fileID: 0}
    propertyPath: m_Drag
    value: 0.05
    objectReference: {fileID: 0}
  - target: {fileID: 0}
    propertyPath: m_AngularDrag
    value: 0.05
    objectReference: {fileID: 0}
  - target: {fileID: 0}
    propertyPath: m_UseGravity
    value: 0
    objectReference: {fileID: 0}
  - target: {fileID: 0}
    propertyPath: m_IsKinematic
    value: 0
    objectReference: {fileID: 0}
  - target: {fileID: 0}
    propertyPath: m_Interpolate
    value: 0
    objectReference: {fileID: 0}
  - target: {fileID: 0}
    propertyPath: m_Constraints
    value: 126
    objectReference: {fileID: 0}
  - target: {fileID: 0}
    propertyPath: m_CollisionDetection
    value: 0
    objectReference: {fileID: 0}
  m_ExcludedProperties: []
