%YAML 1.1
%TAG !u! tag:unity3d.com,2011:
--- !u!1001 &4553238023848813466
PrefabInstance:
  m_ObjectHideFlags: 0
  serializedVersion: 2
  m_Modification:
    serializedVersion: 3
    m_TransformParent: {fileID: 0}
    m_Modifications:
    - target: {fileID: -4216859302048453862, guid: 91b174827dc3b424c9a6a317e43c340a, type: 3}
      propertyPath: m_LocalPosition.x
      value: 0
      objectReference: {fileID: 0}
    - target: {fileID: -4216859302048453862, guid: 91b174827dc3b424c9a6a317e43c340a, type: 3}
      propertyPath: m_LocalPosition.y
      value: 0
      objectReference: {fileID: 0}
    - target: {fileID: -4216859302048453862, guid: 91b174827dc3b424c9a6a317e43c340a, type: 3}
      propertyPath: m_LocalPosition.z
      value: 0
      objectReference: {fileID: 0}
    - target: {fileID: -4216859302048453862, guid: 91b174827dc3b424c9a6a317e43c340a, type: 3}
      propertyPath: m_LocalRotation.w
      value: 1
      objectReference: {fileID: 0}
    - target: {fileID: -4216859302048453862, guid: 91b174827dc3b424c9a6a317e43c340a, type: 3}
      propertyPath: m_LocalRotation.x
      value: 0
      objectReference: {fileID: 0}
    - target: {fileID: -4216859302048453862, guid: 91b174827dc3b424c9a6a317e43c340a, type: 3}
      propertyPath: m_LocalRotation.y
      value: 0
      objectReference: {fileID: 0}
    - target: {fileID: -4216859302048453862, guid: 91b174827dc3b424c9a6a317e43c340a, type: 3}
      propertyPath: m_LocalRotation.z
      value: 0
      objectReference: {fileID: 0}
    - target: {fileID: -4216859302048453862, guid: 91b174827dc3b424c9a6a317e43c340a, type: 3}
      propertyPath: m_LocalEulerAnglesHint.x
      value: 0
      objectReference: {fileID: 0}
    - target: {fileID: -4216859302048453862, guid: 91b174827dc3b424c9a6a317e43c340a, type: 3}
      propertyPath: m_LocalEulerAnglesHint.y
      value: 0
      objectReference: {fileID: 0}
    - target: {fileID: -4216859302048453862, guid: 91b174827dc3b424c9a6a317e43c340a, type: 3}
      propertyPath: m_LocalEulerAnglesHint.z
      value: 0
      objectReference: {fileID: 0}
    - target: {fileID: -927199367670048503, guid: 91b174827dc3b424c9a6a317e43c340a, type: 3}
      propertyPath: m_Name
      value: Female_hat3
      objectReference: {fileID: 0}
    m_RemovedComponents: []
    m_RemovedGameObjects: []
    m_AddedGameObjects: []
    m_AddedComponents:
    - targetCorrespondingSourceObject: {fileID: -927199367670048503, guid: 91b174827dc3b424c9a6a317e43c340a, type: 3}
      insertIndex: -1
      addedObject: {fileID: 6330262268664721395}
  m_SourcePrefab: {fileID: 100100000, guid: 91b174827dc3b424c9a6a317e43c340a, type: 3}
--- !u!23 &104619598687542585 stripped
MeshRenderer:
  m_CorrespondingSourceObject: {fileID: -4736670652073771357, guid: 91b174827dc3b424c9a6a317e43c340a, type: 3}
  m_PrefabInstance: {fileID: 4553238023848813466}
  m_PrefabAsset: {fileID: 0}
--- !u!1 &5481361016786795155 stripped
GameObject:
  m_CorrespondingSourceObject: {fileID: -927199367670048503, guid: 91b174827dc3b424c9a6a317e43c340a, type: 3}
  m_PrefabInstance: {fileID: 4553238023848813466}
  m_PrefabAsset: {fileID: 0}
--- !u!114 &6330262268664721395
MonoBehaviour:
  m_ObjectHideFlags: 0
  m_CorrespondingSourceObject: {fileID: 0}
  m_PrefabInstance: {fileID: 0}
  m_PrefabAsset: {fileID: 0}
  m_GameObject: {fileID: 5481361016786795155}
  m_Enabled: 1
  m_EditorHideFlags: 0
  m_Script: {fileID: 11500000, guid: 22d982831108893488918b6160614fbf, type: 3}
  m_Name: 
  m_EditorClassIdentifier: 
  rend: {fileID: 104619598687542585}
  meshTransform: {fileID: 7367274085378446554}
  overrideIndexes: 0000000002000000
--- !u!4 &7367274085378446554 stripped
Transform:
  m_CorrespondingSourceObject: {fileID: -2806435927899818176, guid: 91b174827dc3b424c9a6a317e43c340a, type: 3}
  m_PrefabInstance: {fileID: 4553238023848813466}
  m_PrefabAsset: {fileID: 0}
