%YAML 1.1
%TAG !u! tag:unity3d.com,2011:
--- !u!1001 &5434952183746996920
PrefabInstance:
  m_ObjectHideFlags: 0
  serializedVersion: 2
  m_Modification:
    serializedVersion: 3
    m_TransformParent: {fileID: 0}
    m_Modifications:
    - target: {fileID: -4216859302048453862, guid: ef507d626a2d52b48973606ccff2d559, type: 3}
      propertyPath: m_LocalPosition.x
      value: 0
      objectReference: {fileID: 0}
    - target: {fileID: -4216859302048453862, guid: ef507d626a2d52b48973606ccff2d559, type: 3}
      propertyPath: m_LocalPosition.y
      value: 0
      objectReference: {fileID: 0}
    - target: {fileID: -4216859302048453862, guid: ef507d626a2d52b48973606ccff2d559, type: 3}
      propertyPath: m_LocalPosition.z
      value: 0
      objectReference: {fileID: 0}
    - target: {fileID: -4216859302048453862, guid: ef507d626a2d52b48973606ccff2d559, type: 3}
      propertyPath: m_LocalRotation.w
      value: 1
      objectReference: {fileID: 0}
    - target: {fileID: -4216859302048453862, guid: ef507d626a2d52b48973606ccff2d559, type: 3}
      propertyPath: m_LocalRotation.x
      value: 0
      objectReference: {fileID: 0}
    - target: {fileID: -4216859302048453862, guid: ef507d626a2d52b48973606ccff2d559, type: 3}
      propertyPath: m_LocalRotation.y
      value: 0
      objectReference: {fileID: 0}
    - target: {fileID: -4216859302048453862, guid: ef507d626a2d52b48973606ccff2d559, type: 3}
      propertyPath: m_LocalRotation.z
      value: 0
      objectReference: {fileID: 0}
    - target: {fileID: -4216859302048453862, guid: ef507d626a2d52b48973606ccff2d559, type: 3}
      propertyPath: m_LocalEulerAnglesHint.x
      value: 0
      objectReference: {fileID: 0}
    - target: {fileID: -4216859302048453862, guid: ef507d626a2d52b48973606ccff2d559, type: 3}
      propertyPath: m_LocalEulerAnglesHint.y
      value: 0
      objectReference: {fileID: 0}
    - target: {fileID: -4216859302048453862, guid: ef507d626a2d52b48973606ccff2d559, type: 3}
      propertyPath: m_LocalEulerAnglesHint.z
      value: 0
      objectReference: {fileID: 0}
    - target: {fileID: -927199367670048503, guid: ef507d626a2d52b48973606ccff2d559, type: 3}
      propertyPath: m_Name
      value: female_beret
      objectReference: {fileID: 0}
    m_RemovedComponents: []
    m_RemovedGameObjects: []
    m_AddedGameObjects: []
    m_AddedComponents:
    - targetCorrespondingSourceObject: {fileID: -927199367670048503, guid: ef507d626a2d52b48973606ccff2d559, type: 3}
      insertIndex: -1
      addedObject: {fileID: 8515668542600081117}
  m_SourcePrefab: {fileID: 100100000, guid: ef507d626a2d52b48973606ccff2d559, type: 3}
--- !u!23 &3335596182073887523 stripped
MeshRenderer:
  m_CorrespondingSourceObject: {fileID: -1934648737807670885, guid: ef507d626a2d52b48973606ccff2d559, type: 3}
  m_PrefabInstance: {fileID: 5434952183746996920}
  m_PrefabAsset: {fileID: 0}
--- !u!1 &4056961654392779697 stripped
GameObject:
  m_CorrespondingSourceObject: {fileID: -927199367670048503, guid: ef507d626a2d52b48973606ccff2d559, type: 3}
  m_PrefabInstance: {fileID: 5434952183746996920}
  m_PrefabAsset: {fileID: 0}
--- !u!114 &8515668542600081117
MonoBehaviour:
  m_ObjectHideFlags: 0
  m_CorrespondingSourceObject: {fileID: 0}
  m_PrefabInstance: {fileID: 0}
  m_PrefabAsset: {fileID: 0}
  m_GameObject: {fileID: 4056961654392779697}
  m_Enabled: 1
  m_EditorHideFlags: 0
  m_Script: {fileID: 11500000, guid: 22d982831108893488918b6160614fbf, type: 3}
  m_Name: 
  m_EditorClassIdentifier: 
  rend: {fileID: 3335596182073887523}
  meshTransform: {fileID: 5812580455468572701}
--- !u!4 &5812580455468572701 stripped
Transform:
  m_CorrespondingSourceObject: {fileID: 2001492794420234917, guid: ef507d626a2d52b48973606ccff2d559, type: 3}
  m_PrefabInstance: {fileID: 5434952183746996920}
  m_PrefabAsset: {fileID: 0}
